…
dat <- full_join(x = read_csv(file = "Kinziger_et_al_2015_FST.csv"), y = WGS, by = "FST")

dat
```

    ## # A tibble: 21 × 4
    ##    FST                       Kinziger_et_al_2015 microsatellites short_variants
    ##    <chr>                     <chr>                         <dbl>          <dbl>
    ##  1 2011Tillas_vs_2011Earl    TS11-ERL11                    0.142         0.0699
    ##  2 2011Tillas_vs_2006Stone   TS11-STN06                    0.179         0.128 
    ##  3 2011Tillas_vs_2006Big     TS11-BIG06                    0.186         0.119 
    ##  4 2011Tillas_vs_2009Arcata  TS11-AWP09                    0.747         0.392 
    ##  5 2011Tillas_vs_2006Virgin  TS11-VRG06                    0.371         0.350 
    ##  6 2011Tillas_vs_2006Pudding TS11-PUD06                    0.465         0.379 
    ##  7 2011Earl_vs_2006Stone     ERL11-STN06                   0.155         0.156 
    ##  8 2011Earl_vs_2006Big       ERL11-BIG06                   0.183         0.144 
    ##  9 2011Earl_vs_2009Arcata    ERL11-AWP09                   0.739         0.410 
    ## 10 2011Earl_vs_2006Virgin    ERL11-VRG06                   0.404         0.365 
    ## # … with 11 more rows
…
